…
      <frames>
      # A tibble: 35 x 3
          time type  data           
         <dbl> <chr> <chr>          
       1  0.01 rlib  "type: prompt" 
       2  0.02 o     "> "           
       3  0.03 i     "# comment\r\n"
       4  0.04 rlib  "type: input"  
       5  0.05 o     "#"            
       6  0.06 o     " "            
       7  0.07 o     "c"            
       8  0.08 o     "o"            
       9  0.09 o     "m"            
      10  0.1  o     "m"            
      # ... with 25 more rows
