Start an asciicast background process — asciicast_start_process • asciicast
…
#> <config>
#>   "version": 2,
#>   "command": "R -q",
#>   "timestamp": 1657220710,
#>   "env": {
#>     "TERM": "xterm-256color",
#>     "SHELL": "/bin/zsh"
#>   },
#>   "height": 24,
#>   "rows": 24,
#>   "width": 80,
#>   "cols": 80
#> 
#> <frames>
#> # A tibble: 24 × 3
#>      time type  data                
#>     <dbl> <chr> <chr>               
#>  1 0      rlib  "type: prompt"      
#>  2 0      o     "> "                
#>  3 0      i     "a <- runif(10)\r\n"
#>  4 0      rlib  "type: input"       
#>  5 0.0365 o     "a"                 
#>  6 0.0908 o     " "                 
#>  7 0.117  o     "<"                 
#>  8 0.171  o     "-"                 
#>  9 0.223  o     " "                 
#> 10 0.260  o     "r"                 
#> # … with 14 more rows
…
#> <config>
#>   "version": 2,
#>   "command": "R -q",
#>   "timestamp": 1657220710,
#>   "env": {
#>     "TERM": "xterm-256color",
#>     "SHELL": "/bin/zsh"
#>   },
#>   "height": 24,
#>   "rows": 24,
#>   "width": 80,
#>   "cols": 80
#> 
#> <frames>
#> # A tibble: 39 × 3
#>      time type  data          
#>     <dbl> <chr> <chr>         
#>  1 0      rlib  "type: prompt"
#>  2 0      o     "> "          
#>  3 0      i     "a\r\n"       
#>  4 0      rlib  "type: input" 
#>  5 0.0534 o     "a"           
#>  6 0.0534 o     "\r\n"        
#>  7 0.0535 rlib  "busy: 1"     
#>  8 0.0535 rlib  "type: stdout"
#>  9 0.0535 o     " [1]"        
#> 10 0.0535 rlib  "type: stdout"
#> # … with 29 more rows
…
